{
	"name" : "Tear81-male",
	"hd-morphs" : true,
	"projection" : "data/DAZ 3D/Genesis 8/Male 8_1 Tear/Morphs/DAZ 3D/Base/bs_TearProjectionShape.dsf",
	"factor" : 1.0,
	"facs" : {
		"prefix" : "facs_",
		"include" : ["facs_"],
		"exclude" : [],
		"path" : "data/DAZ 3D/Genesis 8/Male 8_1 Tear/Morphs/Daz 3D/FACS/"
	},
	"facsexpr" : {
		"prefix" : ["facs_ctrl_"],
		"include" : ["facs_ctrl_"],
		"exclude" : [],
		"path" : "data/DAZ 3D/Genesis 8/Male 8_1 Tear/Morphs/Daz 3D/FACSExpressions/"
	}
}	
		
