{
    "meta_type" : "horse",
    "rigify_type" : "rigify2",
    
    "hip" : "spine.001",
    "flip_hip" : false,
    "disable_bbones" : true,
    
    "spine" : [
        "spine.002",
        "spine.003",
        "spine.004",
        "spine.005",
        "spine.006",
        "neck.001",
        "neck.002",
        "neck.003",
        "neck.004",
        "head"
    ],
    
    "disconnect" : [
        "neck.001", 
        "tail.001"
    ],
    
    "parents" : {},
    
    "delete_children" : ["head"],

    "delete" : [
        "hip", "abdomen", "chest", 
        "pelvis.L", "pelvis.R", 
        "breast.L", "breast.R", 
        "mane_base.01", "mane_top.01", 
        "mane_base.02", "mane_top.02", 
        "mane_base.03", "mane_top.03", 
        "mane_base.04", "mane_top.04", 
        "mane_base.05", "mane_top.05",
        "mane_base.06", "mane_top.06" 
    ],
    
    "parameters" : [
    ],

    "layers" : [
        "Root", "Spine", "Tail", "Paws", 
        "ArmIK.L", "ArmIK.R", "LegIK.L", "LegIK.R"
    ],
    
    "gizmos" : {
        "jaw" :        ["GZM_MJaw", 1, "Face"]
    }
}
    