{
    "meta_type" : "human",
    "rigify_type" : "rigify2",
    
    "hip" : "spine",
    "flip_hip" : true,
    
    "spine" : [
        "spine.001",
        "spine.002",
        "spine.003",
        "spine.004",
        "spine.005",
        "spine.006",
        "spine.007"
    ],
    
    "disconnect" : ["spine", "spine.005"],

    "parents" : {
        "shoulder.L" : "spine.004",
        "shoulder.R" : "spine.004"
    },
    
    "delete_children" : ["spine.007"],
    
    "delete" : ["breast.L", "breast.R"],     

    "parameters" : [
        ["spine", "neck_pos", 6],
    	["spine", "pivot_pos", 1]
    ],

    "gizmos" : {
        "lowerjaw" :        ["GZM_MJaw", 1, "Face"],
        "lowerJaw" :        ["GZM_MJaw", 1, "Face"],
        "pelvis" :          [null, 1, "Help"],
        "pectoral.L" :      ["GZM_Pectoral", 1, "Torso (Tweak)"],
        "pectoral.R" :      ["GZM_Pectoral", 1, "Torso (Tweak)"],
        "metatarsals.L" :   [null, 1, "Help"],
        "metatarsals.R" :   [null, 1, "Help"]
    }
}
    