{
    "meta_type" : "wolf",
    "rigify_type" : "rigify2",
    
    "head" : "spine.007",
    "hip" : "spine",
    "tailbase" : "tail.001",
    "flip_hip" : false,
    "disable_bbones" : true,
    
    "rename" : [
        ["spine.003", "tail.001"],
        ["spine.002", "tail.002"],
        ["spine.001", "tail.003"],
        ["spine", "tail.004"],
        ["spine.004", "spine"],
        ["spine.005", "spine.001"],
        ["spine.006", "spine.002"],
        ["spine.007", "spine.003"],
        ["spine.008", "spine.004"],
        ["spine.009", "spine.005"],
        ["spine.010", "spine.006"],
        ["spine.011", "spine.007"]
    ],

    "spine" : [
        "spine.001",
        "spine.002",
        "spine.003",
        "spine.004",
        "spine.005",
        "spine.006",
        "spine.007"
    ],
    
    "disconnect" : [
        "spine", 
        "spine.005",
        "tail.001"
    ],
    
    "parents" : {},
    
    "delete_children" : ["spine.007", "front_toe.L", "front_toe.R", "toe.L", "toe.R"],

    "delete" : ["pelvis.L", "pelvis.R", "breast.L", "breast.R"],
    
    "parameters" : [
    ],

    "layers" : [
        "Root", "Spine", "Tail", "Paws", 
        "ArmIK.L", "ArmIK.R", "LegIK.L", "LegIK.R"
    ],
    
    "gizmos" : {
        "jaw" :        ["GZM_MJaw", 1, "Face"],

        "lFToes1" :        ["GZM_Circle", 0.3, "Paws (Tweak)"],
        "lFToes2" :        ["GZM_Circle", 0.3, "Paws (Tweak)"],
        "lFToes3" :        ["GZM_Circle", 0.3, "Paws (Tweak)"],
        "lFToes4" :        ["GZM_Circle", 0.3, "Paws (Tweak)"],
        "rFToes1" :        ["GZM_Circle", 0.3, "Paws (Tweak)"],
        "rFToes2" :        ["GZM_Circle", 0.3, "Paws (Tweak)"],
        "rFToes3" :        ["GZM_Circle", 0.3, "Paws (Tweak)"],
        "rFToes4" :        ["GZM_Circle", 0.3, "Paws (Tweak)"],
        "lHToes1" :        ["GZM_Circle", 0.3, "Paws (Tweak)"],
        "lHToes2" :        ["GZM_Circle", 0.3, "Paws (Tweak)"],
        "lHToes3" :        ["GZM_Circle", 0.3, "Paws (Tweak)"],
        "lHToes4" :        ["GZM_Circle", 0.3, "Paws (Tweak)"],
        "rHToes1" :        ["GZM_Circle", 0.3, "Paws (Tweak)"],
        "rHToes2" :        ["GZM_Circle", 0.3, "Paws (Tweak)"],
        "rHToes3" :        ["GZM_Circle", 0.3, "Paws (Tweak)"],
        "rHToes4" :        ["GZM_Circle", 0.3, "Paws (Tweak)"],

        "lCarpals" :        ["GZM_Circle", 1, "Help"],
        "rCarpals" :        ["GZM_Circle", 1, "Help"]
    }
}
    