﻿{
    "name" : "GoldenPalace_G9",
    "url" : "/data/meipex/GoldenPalace_Genitalia_G9/G9GoldenPalace_Graft/GoldenPalace_G9_9694.dsf#GoldenPalace_G9",
    "ids" : {
        "GP_Hood_Puffy1" : "GP_Hood_Puffy",
        "GP_Hood_Wrinkles1" : "GP_Hood_Wrinkles",
        "GP_MajoraBack_Smooth" : "GP_Majora_Back_Smooth",
        "GP_Tentacles_High" : "GP_Tentacles_Hight",
        "GP_UrethraOpen1" : "GP_UrethralOpening_Widen1"
    },
    "directory" : "/data/meipex/goldenpalace_genitalia_g9/g9goldenpalace_graft/morphs/meipex/base",
    "modified" : "1739593366.711327",
    "version" : 6,
    "definitions" : {
        "GP_Anus_Contraction_Shape3" : "/data/meipex/goldenpalace_genitalia_g9/g9goldenpalace_graft/morphs/meipex/base/gp_anuscontraction_shape3.dsf",
        "GP_Clitoris_Frame1" : "/data/meipex/goldenpalace_genitalia_g9/g9goldenpalace_graft/morphs/meipex/base/gp_clitorisframe1.dsf",
        "GP_Clitoris_Frame2" : "/data/meipex/goldenpalace_genitalia_g9/g9goldenpalace_graft/morphs/meipex/base/gp_clitorisframe2.dsf",
        "GP_Hood_Puffy" : "/data/meipex/goldenpalace_genitalia_g9/g9goldenpalace_graft/morphs/meipex/base/gp_hood_puffy1.dsf",
        "GP_Hood_Wrinkles" : "/data/meipex/goldenpalace_genitalia_g9/g9goldenpalace_graft/morphs/meipex/base/gp_hood_wrinkles1.dsf",
        "GP_Majora_Back_Smooth" : "/data/meipex/goldenpalace_genitalia_g9/g9goldenpalace_graft/morphs/meipex/base/gp_majoraback_smooth.dsf",
        "GP_MinoraBack_Rounder" : "/data/meipex/goldenpalace_genitalia_g9/g9goldenpalace_graft/morphs/meipex/base/gp_minora_backrounder.dsf",
        "GP_MinoraBack_Forward" : "/data/meipex/goldenpalace_genitalia_g9/g9goldenpalace_graft/morphs/meipex/base/gp_minora_back_forward.dsf",
        "GP_Vagina_Open" : "/data/meipex/goldenpalace_genitalia_g9/g9goldenpalace_graft/morphs/meipex/base/gp_pr_vagina_open.dsf",
        "GP_Vagina_Open_Forward" : "/data/meipex/goldenpalace_genitalia_g9/g9goldenpalace_graft/morphs/meipex/base/gp_pr_vagina_open_forward.dsf",
        "GP_PR_Vagina_Open_NeutralizerDeactivate" : "/data/meipex/goldenpalace_genitalia_g9/g9goldenpalace_graft/morphs/meipex/base/gp_pr_vagina_open_morphsneutralizer.dsf",
        "GP_Vagina_Open_Squeeze" : "/data/meipex/goldenpalace_genitalia_g9/g9goldenpalace_graft/morphs/meipex/base/gp_pr_vagina_open_squeeze.dsf",
        "GP_Vagina_Open_Stretch" : "/data/meipex/goldenpalace_genitalia_g9/g9goldenpalace_graft/morphs/meipex/base/gp_pr_vagina_open_stretch.dsf",
        "GP_Tentacles_Hight" : "/data/meipex/goldenpalace_genitalia_g9/g9goldenpalace_graft/morphs/meipex/base/gp_tentacles_high.dsf",
        "GP_Tentacles_Medium_Rounder" : "/data/meipex/goldenpalace_genitalia_g9/g9goldenpalace_graft/morphs/meipex/base/gp_tentacle_medium_rounder.dsf",
        "GP_UrethralOpening_Widen1" : "/data/meipex/goldenpalace_genitalia_g9/g9goldenpalace_graft/morphs/meipex/base/gp_urethraopen1.dsf",
        "GP_Vagina_PushBack" : "/data/meipex/goldenpalace_genitalia_g9/g9goldenpalace_graft/morphs/meipex/base/gp_vagina_moveback.dsf"
    },
    "alias" : {},
    "formulas" : {},
    "minmax" : {},
    "geograft" : {
        "vertex_count" : 25182,
        "definitions" : {
            "GP_Anus_Contraction_Shape3" : "/data/daz 3d/genesis 9/base/morphs/meipex/base/gp_anus_contraction_shape3.dsf",
            "GP_Colon_Bend" : "/data/daz 3d/genesis 9/base/morphs/meipex/dicktator/gp_colon_bend.dsf",
            "GP_Colon_Bumps1" : "/data/daz 3d/genesis 9/base/morphs/meipex/dicktator/gp_colon_bumps1.dsf",
            "GP_Colon_Bumps2" : "/data/daz 3d/genesis 9/base/morphs/meipex/dicktator/gp_colon_bumps2.dsf",
            "GP_Colon_Curve" : "/data/daz 3d/genesis 9/base/morphs/meipex/dicktator/gp_colon_curve.dsf",
            "GP_Colon_RootBend" : "/data/daz 3d/genesis 9/base/morphs/meipex/dicktator/gp_colon_rootbend.dsf",
            "GP_Colon_ScaleDown" : "/data/daz 3d/genesis 9/base/morphs/meipex/dicktator/gp_colon_scaledown.dsf",
            "GP_Colon_Side-Side" : "/data/daz 3d/genesis 9/base/morphs/meipex/dicktator/gp_colon_side-side.dsf",
            "GP_Colon_Twist" : "/data/daz 3d/genesis 9/base/morphs/meipex/dicktator/gp_colon_twist.dsf",
            "GP_LegWiden3_Both" : "/data/daz 3d/genesis 9/base/morphs/meipex/goldenpalace/gp_legwiden1_both.dsf",
            "GP_LegWiden5_Left" : "/data/daz 3d/genesis 9/base/morphs/meipex/base/gp_legwiden5_left.dsf",
            "GP_LegWiden5_Left_Adjust" : "/data/daz 3d/genesis 9/base/morphs/meipex/base/gp_legwiden5_left_adjust.dsf",
            "GP_LegWiden5_Right" : "/data/daz 3d/genesis 9/base/morphs/meipex/base/gp_legwiden5_right.dsf",
            "GP_LegWiden5_Right_Adjust" : "/data/daz 3d/genesis 9/base/morphs/meipex/base/gp_legwiden5_right_adjust.dsf",
            "GP_PR_Anus_Bump03" : "/data/daz 3d/genesis 9/base/morphs/meipex/base/gp_pr_anus_bump03.dsf",
            "GP_Vagina_Open" : "/data/daz 3d/genesis 9/base/morphs/meipex/goldenpalace/gp_pr_vagina_open.dsf",
            "GP_Vagina_Open_Forward" : "/data/daz 3d/genesis 9/base/morphs/meipex/goldenpalace/gp_pr_vagina_open_forward.dsf"
        },
        "alias" : {},
        "formulas" : {},
        "minmax" : {}
    }
}
