{
    "name" : "Genesis 9",
    "fingerprint" : "facs_bs_CheekSquintLeft",
    "facs" : {
        "browInnerUp" : ["facs_ctrl_BrowInnerUp", 1],
        "browInnerUp_L" : ["facs_BrowDownLeft", 1],
        "browInnerUp_R" : ["facs_BrowDownRight", 1],
        "browInnerUpLeft" : ["facs_BrowDownLeft", 1],
        "browInnerUpRight" : ["facs_BrowDownRight", 1],
        "browDown_L" : ["facs_BrowDownLeft", 1],
        "browDown_R" : ["facs_BrowDownRight", 1],
        "browDownLeft" : ["facs_BrowDownLeft", 1],
        "browDownRight" : ["facs_BrowDownRight", 1],
        "browOuterUp_L" : ["facs_BrowOuterUpLeft", 1],
        "browOuterUp_R" : ["facs_BrowOuterUpRight", 1],
        "browOuterUpLeft" : ["facs_BrowOuterUpLeft", 1],
        "browOuterUpRight" : ["facs_BrowOuterUpRight", 1],
        "browSqueeze" : ["facs_ctrl_BrowSqueeze", 1],

        "eyeLookUp_L" : ["facs_ctrl_EyeLookUp-DownLeft", 1],
        "eyeLookUp_R" : ["facs_ctrl_EyeLookUp-DownRight", 1],
        "eyeLookUpLeft" : ["facs_ctrl_EyeLookUp-DownLeft", 1],
        "eyeLookUpRight" : ["facs_ctrl_EyeLookUp-DownRight", 1],
        "eyeLookDown_L" : ["facs_ctrl_EyeLookUp-DownLeft", -1],
        "eyeLookDown_R" : ["facs_ctrl_EyeLookUp-DownRight", -1],
        "eyeLookDownLeft" : ["facs_ctrl_EyeLookUp-DownLeft", -1],
        "eyeLookDownRight" : ["facs_ctrl_EyeLookUp-DownRight", -1],
        "eyeLookIn_L" : ["facs_ctrl_EyeLookSide-SideLeft", 1],
        "eyeLookIn_R" : ["facs_ctrl_EyeLookSide-SideRight", -1],
        "eyeLookInLeft" : ["facs_ctrl_EyeLookSide-SideLeft", 1],
        "eyeLookInRight" : ["facs_ctrl_EyeLookSide-SideRight", -1],
        "eyeLookOut_L" : ["facs_ctrl_EyeLookSide-SideLeft", -1],
        "eyeLookOut_R" : ["facs_ctrl_EyeLookSide-SideRight", 1],
        "eyeLookOutLeft" : ["facs_ctrl_EyeLookSide-SideLeft", -1],
        "eyeLookOutRight" : ["facs_ctrl_EyeLookSide-SideRight", 1],
        
        "eyeBlink_L" : ["facs_bs_EyeBlinkLeft", 1],
        "eyeBlink_R" : ["facs_bs_EyeBlinkRight", 1],
        "eyeBlinkLeft" : ["facs_bs_EyeBlinkLeft", 1],
        "eyeBlinkRight" : ["facs_bs_EyeBlinkRight", 1],
        "eyeSquint_L" : ["facs_bs_EyeSquintLeft", 1],
        "eyeSquint_R" : ["facs_bs_EyeSquintRight", 1],
        "eyeSquintLeft" : ["facs_bs_EyeSquintLeft", 1],
        "eyeSquintRight" : ["facs_bs_EyeSquintRight", 1],
        "eyeWide_L" : ["facs_ctrl_EyeWideLeft", 1],
        "eyeWide_R" : ["facs_ctrl_EyeWideRight", 1],
        "eyeWideLeft" : ["facs_ctrl_EyeWideLeft", 1],
        "eyeWideRight" : ["facs_ctrl_EyeWideRight", 1],

        "cheekPuff" : ["facs_ctrl_CheekPuff", 1],
        "cheekPuff_L" : ["facs_bs_CheekPuffLeft", 1],
        "cheekPuff_R" : ["facs_bs_CheekPuffRight", 1],
        "cheekPuffLeft" : ["facs_bs_CheekPuffLeft", 1],
        "cheekPuffRight" : ["facs_bs_CheekPuffRight", 1],        
        "cheekSquint_L" : ["facs_bs_CheekSquintLeft", 1],
        "cheekSquint_R" : ["facs_bs_CheekSquintRight", 1],
        "cheekSquintLeft" : ["facs_bs_CheekSquintLeft", 1],
        "cheekSquintRight" : ["facs_bs_CheekSquintRight", 1],

        "noseSneer_L" : ["facs_bs_NoseSneerLeft", 1],
        "noseSneer_R" : ["facs_bs_NoseSneerRight", 1],
        "noseSneerLeft" : ["facs_bs_NoseSneerLeft", 1],
        "noseSneerRight" : ["facs_bs_NoseSneerRight", 1],
        "nastrilDilatorLeft" : ["facs_bs_NasalStretchLeft", 1],
        "nastrilDilatorRight" : ["facs_bs_NasalStretchRight", 1],
        "noseFlankRaiseLeft" : ["facs_bs_NasalCreaseFlexLeft", 1],
        "noseFlankRaiseRight" : ["facs_bs_NasalCreaseFlexLeft", 1],
        "nostrilCompressorLeft" : ["facs_bs_NasalCompressLeft", 1],
        "nostrilCompressorRight" : ["facs_bs_NasalCompressRight", 1],
        "noseNostrilsFlar" : ["facs_ctrl_NasalFlare", 1],
        
        "jawOpen" : ["facs_bs_JawOpen", 1],
        "jawForward" : ["facs_ctrl_JawForward-Recess", 1],
        "jawLeft" : ["facs_ctrl_JawLeft-Right", 1],
        "jawRight" : ["facs_ctrl_JawLeft-Right", -1],

        "mouthFunnel" : ["facs_ctrl_MouthFunnel", 1],
        "mouthFunnelUpper" : [["facs_bs_MouthFunnelUpperLeft", 1], ["facs_bs_MouthFunnelUpperRight", 1]],
        "mouthFunnelLower" : [["facs_bs_MouthFunnelLowerLeft", 1], ["facs_bs_MouthFunnelLowerRight", 1]],
        "mouthPucker" : ["facs_ctrl_MouthPucker", 1],
        "mouthLeft" : ["facs_ctrl_MouthLeft-Right", 1],
        "mouthRight" : ["facs_ctrl_MouthLeft-Right", -1],
        "mouthRollUpper" : ["facs_ctrl_MouthRollUpper", 1],
        "mouthRollLower" : ["facs_ctrl_MouthRollLower", 1],
        "mouthShrugUpper" : ["facs_ctrl_MouthShrugUpper", 1],
        "mouthShrugLower" : ["facs_ctrl_MouthShrugLower", 1],
        "mouthClose" : ["facs_ctrl_MouthClose", 1],
        "mouthSmile_L" : ["facs_bs_MouthSmileLeft", 1],
        "mouthSmile_R" : ["facs_bs_MouthSmileRight", 1],
        "mouthSmileLeft" : ["facs_bs_MouthSmileLeft", 1],
        "mouthSmileRight" : ["facs_bs_MouthSmileRight", 1],
        "mouthFrown_L" : ["facs_bs_MouthFrownLeft", 1],
        "mouthFrown_R" : ["facs_bs_MouthFrownRight", 1],
        "mouthFrownLeft" : ["facs_bs_MouthFrownLeft", 1],
        "mouthFrownRight" : ["facs_bs_MouthFrownRight", 1],
        "mouthDimple_L" : ["facs_bs_MouthDimpleLeft", 1],
        "mouthDimple_R" : ["facs_bs_MouthDimpleRight", 1],
        "mouthDimpleLeft" : ["facs_bs_MouthDimpleLeft", 1],
        "mouthDimpleRight" : ["facs_bs_MouthDimpleRight", 1],
        "mouthUpperUp_L" : ["facs_bs_MouthUpperUpLeft", 1],
        "mouthUpperUp_R" : ["facs_bs_MouthUpperUpRight", 1],
        "mouthUpperUpLeft" : ["facs_bs_MouthUpperUpLeft", 1],
        "mouthUpperUpRight" : ["facs_bs_MouthUpperUpRight", 1],
        "mouthLowerDown_L" : ["facs_bs_MouthLowerDownLeft", 1],
        "mouthLowerDown_R" : ["facs_bs_MouthLowerDownRight", 1],
        "mouthLowerDownLeft" : ["facs_bs_MouthLowerDownLeft", 1],
        "mouthLowerDownRight" : ["facs_bs_MouthLowerDownRight", 1],
        "mouthPress_L" : ["facs_ctrl_MouthPressLeft", 1],
        "mouthPress_R" : ["facs_ctrl_MouthPressRight", 1],
        "mouthPressLeft" : ["facs_ctrl_MouthPressLeft", 1],
        "mouthPressRight" : ["facs_ctrl_MouthPressRight", 1],
        "mouthStretch_L" : ["facs_bs_MouthStretchLeft", 1],
        "mouthStretch_R" : ["facs_bs_MouthStretchRight", 1],
        "mouthStretchLeft" : ["facs_bs_MouthStretchLeft", 1],
        "mouthStretchRight" : ["facs_bs_MouthStretchRight", 1],

        "swallow" : ["facs_ctrl_NeckSwallow", 1],
        "tongueOut" : ["facs_bs_TongueOut", 1]
    }
}