{
    "vertices" : [11229,11811,8573,11953,460,9383,24931,24015,24092,11124,11146,24301,9887,415,1670,413,1280,8918,11638,1272,9543,670,1744,1646,5989,2372,2703,33,1752,95,564,105,9941,10797,10018,10975,7371,6286,7422,7776,1017,11595,2540,11604,934,5601,5599,907,232,237,390,238,11998,9395,9355,11809,8768,9361,24888,24910,1136,2391,11802,2781,23887,23924,23931,24293,1151,11300,9157,11119,23839,8574,3144,2349,24074,24062,24123,8690,9026,10308,1994,9896,1653,9571,1663,1380,359,764,1205,10980,11643,1277,1275,1691,2682,2675,10368,224,1986,675,9063,9536,52,54,1389,8777,1702,2365,8984,26,2681,9079,1306,10983,2607,102,8832,109,10433,9937,10932,10528,11423,9824,11441,11416,6699,7447,805,7932,7700,11771,2775,2758,984,5732,1044,1073,2549,11599,2586,2599,1448,573,958,11827,945,5647,5600,11931,5791,8268,5915,5929,2490,382,2559,1043,5521,307,10204,2731,11290,24895,24240,23892,8613,8693,8763,24875,24115,878,11293,3381,9505,9067,9058,9027,1991,2008,8946,561,1700,2686,2685,2684,2689,9581,8489,9591,8773,1683,756,763,10989,10507,10199,9807,9820,6558,268,379,5789,11929,5570,578,1456,943,5646,5546,11103,2140,1068,2576,1066,11963,3378,11694,4853,3597,3926,3918,3886,3902,4001,5270,2976,3917,4693,3539,3841,4282,4186,23968,23862,11274,2823,8704,2824,3,1862,24227,24947,8660,24993,23830,24334,8760,8453,23829,4,11282,25021,8457,5442,1873,2796,2783,2850,2894,2900,2820,2890,2801,2822,2887,11863,2800,2793,23021,23596,20395,23732,12464,21186,24932,24555,24629,22919,22939,24825,21683,12419,13672,12417,13283,20728,23427,13275,21339,12674,13746,13648,17823,14365,14696,12037,13754,12099,12568,12109,21737,22593,21814,22771,19205,18120,19256,19610,13021,23384,14533,23393,12938,17437,17435,12911,12236,12241,12394,12242,23776,21198,21158,23594,20579,21164,24884,24899,13140,14384,23587,14773,24431,24468,24474,24818,13154,23089,20965,22914,24385,20396,15009,14342,24611,24599,24658,20506,20836,22104,13991,21692,13655,21367,13665,13383,12363,12768,13208,22776,23432,13280,13278,13693,14675,14668,22164,12228,13983,12679,20873,21332,12056,12058,13392,20588,13704,14358,20794,12030,14674,20889,13309,22779,14600,12106,20642,12113,22229,21733,22728,22324,23212,21620,23230,23205,18533,19281,12809,19766,19534,23556,14767,14750,12988,17567,13048,13077,14542,23388,14579,14592,13450,12577,12962,23612,12949,17483,17436,23710,17626,20102,17749,17763,14483,12386,14552,13047,17358,12311,22000,14723,23079,24892,24767,24436,20434,20509,20574,24867,24651,12882,23082,15246,21301,20877,20868,20837,13988,14005,20756,12565,13702,14679,14678,14677,14682,21377,20311,21387,20584,13685,12760,12767,22785,22303,21995,21603,21616,18392,12272,12383,17624,23708,17406,12582,13458,12947,17482,17382,22899,14137,13072,14569,13070,23742,15243,23482,16718,15462,15791,15783,15751,15767,15866,17135,14841,15782,16558,15404,15706,16147,16051],
    "faces" : [[120,32,126,198],[232,222,260,269],[149,45,134,210],[177,83,15,82],[161,132,38],[150,46,135,211],[98,22,124],[162,124,35],[91,196,92,19],[75,174,69,5],[92,18,90,181],[219,218,74,175],[11,72,166],[166,65,7],[185,97,31,119],[203,155,51,157],[175,55,3,52],[52,160,257,238],[79,170,56,10],[45,150,211,134],[40,143,208,136],[59,8,67],[77,176,256],[82,13,80],[101,22,98],[13,82,180,99],[4,68,164,61],[29,119,196,91],[111,25,105],[74,176,63,1],[15,83,178,86],[231,228,224,229],[3,62,160,52],[226,231,229,223],[221,230,231,226],[23,100,185,113],[25,111,192,87],[24,110,191,85],[213,152,40,140],[118,29,91,195],[93,19,105,182],[255,237,107],[178,84,20,102],[265,270,233,227],[36,129,204,155],[76,78,8,165],[112,186,118,28],[142,42,145,207],[182,105,25,110],[181,90,27,111],[12,81,177,80],[77,172,78,7],[197,121,32],[122,197,120],[155,204,156,51],[198,125,33],[199,127,34],[205,136,47,151],[20,84,200],[252,241,75,173],[127,200,121],[201,128,37],[131,201,130],[202,153,39],[154,202,130],[155,203,128],[132,204,129],[59,5,60,165],[125,198,81,12],[7,65,209],[65,6,147],[63,7,133],[6,62,212],[161,38,131,153],[32,121,200,126],[147,212,151],[196,115,18,92],[184,104,24,108],[56,0,54,169],[188,112,28,116],[153,202,158,49],[219,225,220],[218,259,240,74],[234,228,227],[173,75,5,59],[217,222,225],[76,165,58,11],[160,66,244,257],[62,6,66,160],[161,153,49,159],[132,161,159,48],[108,24,85,189],[162,125,12,98],[163,71,9,68],[5,69,163,60],[69,10,71,163],[164,70,245,253],[61,164,253,242],[165,60,4,58],[171,61,242,251],[166,7,78,76],[270,262,220,233],[66,167,247,244],[6,72,167,66],[103,22,112,188],[70,168,250,245],[9,53,168,70],[53,2,73,168],[169,54,2,53],[71,169,53,9],[10,56,169,71],[170,57,0,56],[246,249,170,79],[241,254,174,75],[11,58,171,64],[172,67,8,78],[243,248,172,77],[248,235,67,172],[168,73,237,250],[249,239,57,170],[174,79,10,69],[254,246,79,174],[235,252,173,67],[176,77,7,63],[240,256,176,74],[65,166,72,6],[81,14,83,177],[86,178,102,21],[74,1,55,175],[83,14,84,178],[102,20,96,187],[12,80,179,98],[80,13,99,179],[180,86,21,100],[99,180,100,23],[50,157,214,138],[82,15,86,180],[211,135,3,55],[19,92,181,105],[109,26,106,190],[104,182,110,24],[68,9,70,164],[183,88,26,109],[18,94,183,90],[94,16,88,183],[51,156,213,139],[88,184,108,26],[16,95,184,88],[95,17,104,184],[58,4,61,171],[113,185,119,29],[100,21,97,185],[186,113,29,118],[22,101,186,112],[101,23,113,186],[187,96,30,117],[97,187,117,31],[21,102,187,97],[128,201,129,36],[60,163,68,4],[96,188,116,30],[20,103,188,96],[189,85,0,57],[26,108,189,106],[144,207,149,44],[27,109,190,107],[195,91,19,93],[191,87,2,54],[85,191,54,0],[162,35,122,125],[110,25,87,191],[192,107,237,73],[87,192,73,2],[141,43,146,206],[193,89,17,95],[30,116,193,114],[116,28,89,193],[194,114,16,94],[115,194,94,18],[31,117,194,115],[117,30,114,194],[64,171,251,236],[89,195,93,17],[28,118,195,89],[201,131,38,129],[179,99,23,101],[190,106,239,255],[121,197,123,34],[198,126,14,81],[199,124,22,103],[127,199,103,20],[199,34,123,124],[126,200,84,14],[134,211,55,1],[37,128,203,154],[154,203,157,50],[204,132,48,156],[268,265,227,230],[146,205,151,46],[43,140,205,146],[140,40,136,205],[206,146,46,150],[145,206,150,45],[42,141,206,145],[207,145,45,149],[258,217,52,238],[41,142,207,144],[229,224,264,267],[208,144,44,148],[136,208,148,47],[216,137,41,143],[143,41,144,208],[197,122,35,123],[106,189,57,239],[210,134,1,63],[44,149,210,133],[119,31,115,196],[114,193,95,16],[167,64,236,247],[202,154,50,158],[135,212,62,3],[46,151,212,135],[214,139,43,141],[139,213,140,43],[156,48,152,213],[111,27,107,192],[157,51,139,214],[215,138,42,142],[137,215,142,41],[49,158,215,137],[158,50,138,215],[152,216,143,40],[48,159,216,152],[159,49,137,216],[148,44,133,209],[217,219,175,52],[72,11,64,167],[222,217,258,260],[262,259,218,220],[223,229,267,261],[224,232,269,264],[228,234,232,224],[234,227,233,225],[263,268,230,221],[266,226,223,261],[263,221,226,266],[47,148,209,147],[230,227,228,231],[17,93,182,104],[90,183,109,27],[234,225,222,232],[153,131,39],[98,124,162],[125,122,33],[165,8,59],[11,166,76],[59,67,173],[77,256,243],[82,80,177],[101,98,179],[111,105,181],[255,107,190],[197,32,120],[122,120,33],[198,33,120],[124,123,35],[20,200,127],[127,121,34],[201,37,130],[131,130,39],[202,39,130],[154,130,37],[155,128,36],[132,129,38],[7,209,133],[65,147,209],[63,133,210],[6,212,147],[147,151,47],[219,220,218],[217,225,219],[225,233,220],[138,214,141,42],[391,469,397,303],[503,269,260,493],[420,481,405,316],[448,353,286,354],[432,309,403],[421,482,406,317],[369,395,293],[433,306,395],[362,290,363,467],[346,276,340,445],[363,452,361,289],[490,446,345,489],[282,437,343],[437,278,336],[456,390,302,368],[474,428,322,426],[446,323,274,326],[323,238,257,431],[350,281,327,441],[316,405,482,421],[311,407,479,414],[330,338,279],[348,256,447],[353,351,284],[372,369,293],[284,370,451,353],[275,332,435,339],[300,362,467,390],[382,376,296],[345,272,334,447],[286,357,449,354],[502,500,495,499],[274,323,431,333],[497,494,500,502],[492,497,502,501],[294,384,456,371],[296,358,463,382],[295,356,462,381],[484,411,311,423],[389,466,362,300],[364,453,376,290],[255,378,237],[449,373,291,355],[265,498,504,270],[307,426,475,400],[347,436,279,349],[383,299,389,457],[413,478,416,313],[453,381,296,376],[452,382,298,361],[283,351,448,352],[348,278,349,443],[468,303,392],[393,391,468],[426,322,427,475],[469,304,396],[470,305,398],[476,422,318,407],[291,471,355],[252,444,346,241],[398,392,471],[472,308,399],[402,401,472],[473,310,424],[425,401,473],[426,399,474],[403,400,475],[330,436,331,276],[396,283,352,469],[278,480,336],[336,418,277],[334,404,278],[277,483,333],[432,424,402,309],[303,397,471,392],[418,422,483],[467,363,289,386],[455,379,295,375],[327,440,325,271],[459,387,299,383],[424,320,429,473],[490,491,496],[489,345,240,259],[505,498,499],[444,330,276,346],[488,496,493],[347,282,329,436],[431,257,244,337],[333,431,337,277],[432,430,320,424],[403,319,430,432],[379,460,356,295],[433,369,283,396],[434,339,280,342],[276,331,434,340],[340,434,342,281],[435,253,245,341],[332,242,253,435],[436,329,275,331],[442,251,242,332],[437,347,349,278],[270,504,491,262],[337,244,247,438],[277,337,438,343],[374,459,383,293],[341,245,250,439],[280,341,439,324],[324,439,344,273],[440,324,273,325],[342,280,324,440],[281,342,440,327],[441,327,271,328],[246,350,441,249],[241,346,445,254],[282,335,442,329],[443,349,279,338],[243,348,443,248],[248,443,338,235],[439,250,237,344],[249,441,328,239],[445,340,281,350],[254,445,350,246],[235,338,444,252],[447,334,278,348],[240,345,447,256],[336,277,343,437],[352,448,354,285],[357,292,373,449],[345,446,326,272],[354,449,355,285],[373,458,367,291],[283,369,450,351],[351,450,370,284],[451,371,292,357],[370,294,371,451],[321,409,485,428],[353,451,357,286],[482,326,274,406],[290,376,452,363],[380,461,377,297],[375,295,381,453],[339,435,341,280],[454,380,297,359],[289,361,454,365],[365,454,359,287],[322,410,484,427],[359,297,379,455],[287,359,455,366],[366,455,375,288],[329,442,332,275],[384,300,390,456],[371,456,368,292],[457,389,300,384],[293,383,457,372],[372,457,384,294],[458,388,301,367],[368,302,388,458],[292,368,458,373],[399,307,400,472],[331,275,339,434],[367,301,387,459],[291,367,459,374],[460,328,271,356],[297,377,460,379],[415,315,420,478],[298,378,461,380],[466,364,290,362],[462,325,273,358],[356,271,325,462],[433,396,393,306],[381,462,358,296],[463,344,237,378],[358,273,344,463],[412,477,417,314],[464,366,288,360],[301,385,464,387],[387,464,360,299],[465,365,287,385],[386,289,365,465],[302,386,465,388],[388,465,385,301],[335,236,251,442],[360,288,364,466],[299,360,466,389],[472,400,309,402],[450,372,294,370],[461,255,239,377],[392,305,394,468],[469,352,285,397],[470,374,293,395],[398,291,374,470],[470,395,394,305],[397,285,355,471],[405,272,326,482],[308,425,474,399],[425,321,428,474],[475,427,319,403],[268,501,498,265],[417,317,422,476],[314,417,476,411],[411,476,407,311],[477,421,317,417],[416,316,421,477],[313,416,477,412],[478,420,316,416],[258,238,323,488],[312,415,478,413],[500,267,264,495],[479,419,315,415],[407,318,419,479],[487,414,312,408],[414,479,415,312],[468,394,306,393],[377,239,328,460],[481,334,272,405],[315,404,481,420],[390,467,386,302],[385,287,366,464],[438,247,236,335],[473,429,321,425],[406,274,333,483],[317,406,483,422],[485,412,314,410],[410,314,411,484],[427,484,423,319],[382,463,378,298],[428,485,410,322],[486,413,313,409],[408,312,413,486],[320,408,486,429],[429,486,409,321],[423,311,414,487],[319,423,487,430],[430,487,408,320],[419,480,404,315],[488,323,446,490],[343,438,335,282],[493,260,258,488],[262,491,489,259],[494,261,267,500],[495,264,269,503],[499,495,503,505],[505,496,504,498],[263,492,501,268],[266,261,494,497],[263,266,497,492],[318,418,480,419],[501,502,499,498],[288,375,453,364],[361,298,380,454],[505,503,493,496],[424,310,402],[369,433,395],[396,304,393],[436,330,279],[282,347,437],[330,444,338],[348,243,256],[353,448,351],[372,450,369],[382,452,376],[255,461,378],[468,391,303],[393,304,391],[469,391,304],[395,306,394],[291,398,471],[398,305,392],[472,401,308],[402,310,401],[473,401,310],[425,308,401],[426,307,399],[403,309,400],[278,404,480],[336,480,418],[334,481,404],[277,418,483],[418,318,422],[490,489,491],[488,490,496],[496,491,504],[409,313,412,485]],
    "name" : "Genesis9"
}
