{
    "character" : "Genesis 9",
    "parents" : {
        "hip" : "",
        "pelvis" : "hip",
        "l_thigh" : "pelvis",
        "l_shin" : "l_thigh",
        "l_foot" : "l_shin",
        "l_toes" : "l_foot",
        "l_bigtoe1" : "l_toes",
        "l_bigtoe2" : "l_bigtoe1",
        "l_indextoe1" : "l_toes",
        "l_indextoe2" : "l_indextoe1",
        "l_midtoe1" : "l_toes",
        "l_midtoe2" : "l_midtoe1",
        "l_ringtoe1" : "l_toes",
        "l_ringtoe2" : "l_ringtoe1",
        "l_pinkytoe1" : "l_toes",
        "l_pinkytoe2" : "l_pinkytoe1",
        "l_metatarsal" : "l_foot",
        "l_thightwist1" : "l_thigh",
        "l_thightwist2" : "l_thigh",
        "r_thigh" : "pelvis",
        "r_shin" : "r_thigh",
        "r_foot" : "r_shin",
        "r_toes" : "r_foot",
        "r_bigtoe1" : "r_toes",
        "r_bigtoe2" : "r_bigtoe1",
        "r_indextoe1" : "r_toes",
        "r_indextoe2" : "r_indextoe1",
        "r_midtoe1" : "r_toes",
        "r_midtoe2" : "r_midtoe1",
        "r_ringtoe1" : "r_toes",
        "r_ringtoe2" : "r_ringtoe1",
        "r_pinkytoe1" : "r_toes",
        "r_pinkytoe2" : "r_pinkytoe1",
        "r_metatarsal" : "r_foot",
        "r_thightwist1" : "r_thigh",
        "r_thightwist2" : "r_thigh",
        "spine1" : "hip",
        "spine2" : "spine1",
        "spine3" : "spine2",
        "spine4" : "spine3",
        "l_shoulder" : "spine4",
        "l_upperarm" : "l_shoulder",
        "l_forearm" : "l_upperarm",
        "l_hand" : "l_forearm",
        "l_hand_anchor" : "l_hand",
        "l_thumb1" : "l_hand",
        "l_thumb2" : "l_thumb1",
        "l_thumb3" : "l_thumb2",
        "l_indexmetacarpal" : "l_hand",
        "l_index1" : "l_indexmetacarpal",
        "l_index2" : "l_index1",
        "l_index3" : "l_index2",
        "l_midmetacarpal" : "l_hand",
        "l_mid1" : "l_midmetacarpal",
        "l_mid2" : "l_mid1",
        "l_mid3" : "l_mid2",
        "l_ringmetacarpal" : "l_hand",
        "l_ring1" : "l_ringmetacarpal",
        "l_ring2" : "l_ring1",
        "l_ring3" : "l_ring2",
        "l_pinkymetacarpal" : "l_hand",
        "l_pinky1" : "l_pinkymetacarpal",
        "l_pinky2" : "l_pinky1",
        "l_pinky3" : "l_pinky2",
        "l_forearmtwist1" : "l_forearm",
        "l_forearmtwist2" : "l_forearm",
        "l_upperarmtwist1" : "l_upperarm",
        "l_upperarmtwist2" : "l_upperarm",
        "r_shoulder" : "spine4",
        "r_upperarm" : "r_shoulder",
        "r_forearm" : "r_upperarm",
        "r_hand" : "r_forearm",
        "r_hand_anchor" : "r_hand",
        "r_thumb1" : "r_hand",
        "r_thumb2" : "r_thumb1",
        "r_thumb3" : "r_thumb2",
        "r_indexmetacarpal" : "r_hand",
        "r_index1" : "r_indexmetacarpal",
        "r_index2" : "r_index1",
        "r_index3" : "r_index2",
        "r_midmetacarpal" : "r_hand",
        "r_mid1" : "r_midmetacarpal",
        "r_mid2" : "r_mid1",
        "r_mid3" : "r_mid2",
        "r_ringmetacarpal" : "r_hand",
        "r_ring1" : "r_ringmetacarpal",
        "r_ring2" : "r_ring1",
        "r_ring3" : "r_ring2",
        "r_pinkymetacarpal" : "r_hand",
        "r_pinky1" : "r_pinkymetacarpal",
        "r_pinky2" : "r_pinky1",
        "r_pinky3" : "r_pinky2",
        "r_forearmtwist1" : "r_forearm",
        "r_forearmtwist2" : "r_forearm",
        "r_upperarmtwist1" : "r_upperarm",
        "r_upperarmtwist2" : "r_upperarm",
        "neck1" : "spine4",
        "neck2" : "neck1",
        "head" : "neck2",
        "upperteeth" : "head",
        "lowerjaw" : "head",
        "lowerteeth" : "lowerjaw",
        "tongue01" : "lowerteeth",
        "tongue02" : "tongue01",
        "tongue03" : "tongue02",
        "tongue04" : "tongue03",
        "tongue05" : "tongue04",
        "lowerfacerig" : "lowerjaw",
        "l_lipcorner" : "lowerfacerig",
        "l_liplower" : "lowerfacerig",
        "liplowermiddle" : "lowerfacerig",
        "r_liplower" : "lowerfacerig",
        "r_lipcorner" : "lowerfacerig",
        "l_cheeklower" : "lowerfacerig",
        "r_cheeklower" : "lowerfacerig",
        "chin" : "lowerfacerig",
        "upperfacerig" : "head",
        "l_browinner" : "upperfacerig",
        "l_browouter" : "upperfacerig",
        "r_browinner" : "upperfacerig",
        "r_browouter" : "upperfacerig",
        "centerbrow" : "upperfacerig",
        "l_eyelidupper" : "upperfacerig",
        "l_eyelidlower" : "upperfacerig",
        "r_eyelidupper" : "upperfacerig",
        "r_eyelidlower" : "upperfacerig",
        "l_squint" : "upperfacerig",
        "r_squint" : "upperfacerig",
        "l_cheek" : "upperfacerig",
        "r_cheek" : "upperfacerig",
        "l_nostril" : "upperfacerig",
        "r_nostril" : "upperfacerig",
        "lipuppermiddle" : "upperfacerig",
        "l_lipupper" : "upperfacerig",
        "r_lipupper" : "upperfacerig",
        "l_infraorbital" : "upperfacerig",
        "r_infraorbital" : "upperfacerig",
        "l_eye" : "head",
        "r_eye" : "head",
        "l_ear" : "head",
        "r_ear" : "head",
        "l_pectoral" : "spine3",
        "r_pectoral" : "spine3"
    }
}
